Rank,Player,FG%
1.,DeAndre Jordan,.6714
2.,Tyson Chandler,.5955
3.,Dwight Howard,.5828
4.,Shaquille O'Neal*,.5823
5.,Artis Gilmore*,.5819
6.,Mark West,.5803
7.,Steve Johnson,.5722
8.,Darryl Dawkins,.5720
9.,Amir Johnson,.5719
10.,James Donaldson,.5706
11.,Bo Outlaw,.5673
12.,Jeff Ruland,.5637
13.,Bobby Jones,.5597
14.,Kareem Abdul-Jabbar*,.5595
15.,Jonas Valanciunas,.5584
16.,Kevin McHale*,.5538
17.,Marcin Gortat,.5521
18.,Buck Williams,.5492
19.,Nene Hilario,.5483
20.,Goo Kennedy,.5482
21.,Larry Nance,.5461
22.,Otis Thorpe,.5457
23.,Cedric Maxwell,.5455
24.,Eddy Curry,.5446
25.,Kenneth Faried,.5439
,Andre Drummond,.5439
27.,Chris Wilcox,.5409
28.,Charles Barkley*,.5405
29.,Adrian Dantley*,.5402
30.,Wilt Chamberlain*,.5397
31.,Karl-Anthony Towns,.5391
32.,Enes Kanter,.5390
33.,Gene Banks,.5388
34.,Amar'e Stoudemire,.5369
35.,Robert Parish*,.5367
36.,David Lee,.5355
37.,Swen Nater,.5352
38.,Carl Landry,.5351
39.,Andrew Bogut,.5349
40.,Nick Collison,.5335
41.,Brad Daugherty,.5318
42.,Trooper Washington,.5316
43.,Larry Smith,.5311
44.,Dale Davis,.5299
45.,Calvin Natt,.5281
46.,Brendan Haywood,.5276
47.,Alonzo Mourning*,.5274
,Dave Twardzik,.5274
49.,Robin Lopez,.5258
50.,Bill Cartwright,.5250
51.,Kiki Vandeweghe,.5247
52.,Yao Ming*,.5244
53.,Clifford Ray,.5243
54.,Lewis Lloyd,.5241
55.,Maurice Cheeks*,.5234
56.,Al Horford,.5233
57.,Mitch Kupchak,.5227
58.,Tree Rollins,.5223
59.,Carlos Boozer,.5211
60.,Samuel Dalembert,.5210
61.,Dennis Rodman*,.5209
,James Worthy*,.5209
63.,Bill Walton*,.5208
64.,Magic Johnson*,.5197
65.,Derrick Favors,.5190
66.,Frank Brickowski,.5188
67.,Dikembe Mutombo*,.5182
,Bernard King*,.5182
69.,Marques Johnson,.5181
70.,David Robinson*,.5179
71.,George Irvine,.5175
72.,Ruben Patterson,.5170
73.,Karl Malone*,.5161
,Anthony Davis,.5161
75.,Walt Bellamy*,.5159
76.,Cliff Levingston,.5157
77.,John Stockton*,.5154
78.,Michael Cage,.5147
79.,Greg Monroe,.5146
80.,Bob Lanier*,.5142
81.,Serge Ibaka,.5138
82.,Julian Hammond,.5136
83.,Tom Owens,.5133
84.,Orlando Woolridge,.5131
85.,Chris Gatling,.5127
86.,Alton Lister,.5123
87.,Hakeem Olajuwon*,.5121
88.,Emeka Okafor,.5120
89.,Walter Davis,.5115
90.,Joe Meriweather,.5113
91.,Danny Manning,.5110
92.,Giannis Antetokounmpo,.5108
93.,Brad Davis,.5103
94.,Kenny Carr,.5097
95.,Anthony Mason,.5095
96.,Jimmy Jones,.5093
97.,Wes Unseld*,.5089
,Chris Mullin*,.5089
99.,Horace Grant,.5086
100.,Mike Jackson,.5079
101.,Pau Gasol,.5077
102.,Billy Knight,.5073
,Taj Gibson,.5073
104.,Blake Griffin,.5068
105.,Rik Smits,.5067
,Alex English*,.5067
107.,Otis Birdsong,.5062
108.,Tim Duncan,.5058
109.,Terry Dischinger,.5057
,Julius Erving*,.5057
111.,Olden Polynice,.5055
112.,David Thompson*,.5054
113.,J.J. Hickson,.5052
114.,Othella Harrington,.5051
115.,Wayman Tisdale,.5048
116.,Byron Beck,.5046
117.,LeBron James,.5042
,Patrick Ewing*,.5042
119.,Jim Eakins,.5041
120.,Loy Vaught,.5040
121.,Mychal Thompson,.5037
,Paul Westphal,.5037
,George Gervin*,.5037
124.,Mark Blount,.5036
125.,Bob McAdoo*,.5030
126.,Antoine Carr,.5027
127.,Rodney McCray,.5025
128.,Sidney Moncrief,.5022
,Tyrone Hill,.5022
130.,Fred Roberts,.5020
131.,Rasho Nesterovic,.5019
132.,Kevin Gamble,.5018
133.,Doug Collins,.5013
,Kyle Macy,.5013
135.,Nikola Vucevic,.5010
136.,Rudy Tomjanovich,.5009
137.,Brook Lopez,.5006
138.,Elton Brand,.5005
,Arvydas Sabonis*,.5005
140.,Cedric Ceballos,.5003
141.,Andrew Toney,.5000
142.,John Paxson,.4994
,Matt Geiger,.4994
144.,Jamaal Wilkes*,.4992
145.,Al Jefferson,.4991
,Brandon Bass,.4991
147.,Jerry Lucas*,.4990
,Dan Issel*,.4990
149.,Thaddeus Young,.4986
,Roy Hinson,.4986
151.,Derek Smith,.4985
,Steve Mix,.4985
153.,Vern Fleming,.4984
154.,Mike Lewis,.4983
155.,Alvan Adams,.4980
156.,Bill Laimbeer,.4978
157.,Jim Paxson,.4976
,Erick Dampier,.4976
159.,Billy Paultz,.4970
160.,Clark Kellogg,.4969
,Kevin Garnett,.4969
,Michael Jordan*,.4969
163.,Benoit Benjamin,.4967
164.,Antonio McDyess,.4966
165.,Pat Cummings,.4965
166.,Jason Thompson,.4964
167.,Ollie Johnson,.4961
168.,Jeff Hornacek,.4959
169.,Theo Ratliff,.4958
170.,Larry Bird*,.4956
171.,Phil Hubbard,.4954
172.,Moses Malone*,.4953
173.,Vlade Divac,.4952
174.,David West,.4951
175.,James Silas,.4950
176.,James Edwards,.4949
177.,Zelmo Beaty*,.4943
178.,A.C. Green,.4938
179.,Eric Money,.4936
,Kawhi Leonard,.4936
181.,Ricky Pierce,.4935
,Kent Benson,.4935
,Chris Bosh,.4935
,Boris Diaw,.4935
185.,Mike Mitchell,.4934
186.,Brian Taylor,.4932
187.,Luis Scola,.4930
,Rolando Blackman,.4930
189.,Rick Mahorn,.4928
,Johnny Green,.4928
191.,Kevin Johnson,.4926
192.,Tony Parker,.4920
,Bob Netolicky,.4920
194.,LaSalle Thompson,.4918
195.,Mark Olberding,.4917
,Greg Anderson,.4917
197.,Lonnie Shelton,.4915
198.,John Beasley,.4914
199.,Paul Millsap,.4912
200.,Detlef Schrempf,.4911
201.,Kevin Durant,.4905
,Udonis Haslem,.4905
203.,Steve Nash*,.4903
204.,Joakim Noah,.4902
205.,Brian Grant,.4901
206.,Corliss Williamson,.4899
207.,Walt Frazier*,.4898
208.,Jon McGlocklin,.4895
209.,Armen Gilliam,.4889
210.,Chris Kaman,.4887
211.,Lou Hudson,.4886
212.,Tony Battie,.4885
213.,Rich Kelley,.4884
214.,Reggie Lewis,.4882
215.,Dick Snyder,.4881
,Shawn Kemp,.4881
217.,Marvin Webster,.4876
218.,Goose Ligon,.4875
219.,Larry Kenon,.4873
220.,LaMarcus Aldridge,.4872
221.,Kevin Willis,.4869
,Mike McGee,.4869
223.,Butch Beard,.4865
224.,Ralph Sampson*,.4864
225.,Nazr Mohammed,.4863
226.,Marc Gasol,.4860
227.,Kurt Thomas,.4859
228.,Derrick McKey,.4856
,Ken Norman,.4856
230.,Xavier McDaniel,.4855
231.,Terry Catledge,.4850
,Vin Baker,.4850
233.,Sedale Threatt,.4847
,Paul Pressey,.4847
235.,Wally Szczerbiak,.4846
,Oscar Robertson*,.4846
237.,Shaun Livingston,.4845
238.,Larry Johnson,.4844
,Mark Aguirre,.4844
,Steve Stipanovich,.4844
241.,Sherman Douglas,.4843
242.,Shawn Marion,.4841
243.,Bob Dandridge,.4840
,Terry Tyler,.4840
245.,Jeff Malone,.4838
,Terry Cummings,.4838
,Dave Corzine,.4838
248.,Rony Seikaly,.4837
,James Bailey,.4837
250.,Grant Hill*,.4834