Season,Age,Tm,Lg,Pos,G,GS,MP,FG,FGA,FG%,3P,3PA,3P%,2P,2PA,2P%,eFG%,FT,FTA,FT%,ORB,DRB,TRB,AST,STL,BLK,TOV,PF,PTS
1984-85,21,CHI,NBA,SG,82,82,38.3,10.2,19.8,.515,0.1,0.6,.173,10.1,19.2,.526,.518,7.7,9.1,.845,2.0,4.5,6.5,5.9,2.4,0.8,3.5,3.5,28.2
1985-86,22,CHI,NBA,SG,18,7,25.1,8.3,18.2,.457,0.2,1.0,.167,8.2,17.2,.474,.462,5.8,6.9,.840,1.3,2.3,3.6,2.9,2.1,1.2,2.5,2.6,22.7
1986-87,23,CHI,NBA,SG,82,82,40.0,13.4,27.8,.482,0.1,0.8,.182,13.2,27.0,.491,.484,10.2,11.9,.857,2.0,3.2,5.2,4.6,2.9,1.5,3.3,2.9,37.1
1987-88,24,CHI,NBA,SG,82,82,40.4,13.0,24.4,.535,0.1,0.6,.132,13.0,23.7,.546,.537,8.8,10.5,.841,1.7,3.8,5.5,5.9,3.2,1.6,3.1,3.3,35.0
1988-89,25,CHI,NBA,SG,81,81,40.2,11.9,22.2,.538,0.3,1.2,.276,11.6,21.0,.553,.546,8.3,9.8,.850,1.8,6.2,8.0,8.0,2.9,0.8,3.6,3.0,32.5
1989-90,26,CHI,NBA,SG,82,82,39.0,12.6,24.0,.526,1.1,3.0,.376,11.5,21.0,.548,.550,7.2,8.5,.848,1.7,5.1,6.9,6.3,2.8,0.7,3.0,2.9,33.6
1990-91,27,CHI,NBA,SG,82,82,37.0,12.1,22.4,.539,0.4,1.1,.312,11.7,21.3,.551,.547,7.0,8.2,.851,1.4,4.6,6.0,5.5,2.7,1.0,2.5,2.8,31.5
1991-92,28,CHI,NBA,SG,80,80,38.8,11.8,22.7,.519,0.3,1.3,.270,11.5,21.5,.533,.526,6.1,7.4,.832,1.1,5.3,6.4,6.1,2.3,0.9,2.5,2.5,30.1
1992-93,29,CHI,NBA,SG,78,78,39.3,12.7,25.7,.495,1.0,2.9,.352,11.7,22.7,.514,.515,6.1,7.3,.837,1.7,5.0,6.7,5.5,2.8,0.8,2.7,2.4,32.6
1993-94,30,Did Not Play (Minor League Baseball—Birmingham Barons),,,,,,,,,,,,,,,,,,,,,,,,,,,
1994-95,31,CHI,NBA,SG,17,17,39.3,9.8,23.8,.411,0.9,1.9,.500,8.8,21.9,.403,.431,6.4,8.0,.801,1.5,5.4,6.9,5.3,1.8,0.8,2.1,2.8,26.9
1995-96,32,CHI,NBA,SG,82,82,37.7,11.2,22.6,.495,1.4,3.2,.427,9.8,19.4,.506,.525,6.7,8.0,.834,1.8,4.8,6.6,4.3,2.2,0.5,2.4,2.4,30.4
1996-97,33,CHI,NBA,SG,82,82,37.9,11.2,23.1,.486,1.4,3.6,.374,9.9,19.5,.507,.516,5.9,7.0,.833,1.4,4.5,5.9,4.3,1.7,0.5,2.0,1.9,29.6
1997-98,34,CHI,NBA,SG,82,82,38.8,10.7,23.1,.465,0.4,1.5,.238,10.4,21.5,.482,.473,6.9,8.8,.784,1.6,4.2,5.8,3.5,1.7,0.5,2.3,1.8,28.7
1998-99,35,Did Not Play (retired),,,,,,,,,,,,,,,,,,,,,,,,,,,
1999-00,36,Did Not Play (retired),,,,,,,,,,,,,,,,,,,,,,,,,,,
2000-01,37,Did Not Play (retired),,,,,,,,,,,,,,,,,,,,,,,,,,,
2001-02,38,WAS,NBA,SF,60,53,34.9,9.2,22.1,.416,0.2,0.9,.189,9.0,21.2,.426,.420,4.4,5.6,.790,0.8,4.8,5.7,5.2,1.4,0.4,2.7,2.0,22.9
2002-03,39,WAS,NBA,SF,82,67,37.0,8.3,18.6,.445,0.2,0.7,.291,8.1,18.0,.450,.450,3.2,4.0,.821,0.9,5.2,6.1,3.8,1.5,0.5,2.1,2.1,20.0
Career,,,NBA,,1072,1039,38.3,11.4,22.9,.497,0.5,1.7,.327,10.8,21.2,.510,.509,6.8,8.2,.835,1.6,4.7,6.2,5.3,2.3,0.8,2.7,2.6,30.1
